^C:\USERS\ANST9\DOCUMENTS\MS-REPO\ANDYS WUNDERSCHMIEDE\DEBUG\ANDYS TESTS.OBJ
C:\USERS\ANST9\DOCUMENTS\MS-REPO\MS PROJEKT VISUAL STUDIO\DEBUG\ANDYS WUNDERSCHMIEDE.ILK
C:\USERS\ANST9\DOCUMENTS\MS-REPO\MS PROJEKT VISUAL STUDIO\DEBUG\ANDYS WUNDERSCHMIEDE.EXE
C:\USERS\ANST9\DOCUMENTS\MS-REPO\MS PROJEKT VISUAL STUDIO\DEBUG\ANDYS WUNDERSCHMIEDE.PDB
^C:\USERS\INFORM\DOCUMENTS\STUDIUM\MS\PROJEKT\MS-REPO\ANDYS WUNDERSCHMIEDE\DEBUG\ANDYS TESTS.OBJ
C:\USERS\INFORM\DOCUMENTS\STUDIUM\MS\PROJEKT\MS-REPO\MS PROJEKT VISUAL STUDIO\DEBUG\ANDYS WUNDERSCHMIEDE.ILK
C:\USERS\INFORM\DOCUMENTS\STUDIUM\MS\PROJEKT\MS-REPO\MS PROJEKT VISUAL STUDIO\DEBUG\ANDYS WUNDERSCHMIEDE.EXE
C:\USERS\INFORM\DOCUMENTS\STUDIUM\MS\PROJEKT\MS-REPO\MS PROJEKT VISUAL STUDIO\DEBUG\ANDYS WUNDERSCHMIEDE.PDB
